{"page":1,"total_results":458,"total_pages":23,"results":[{"vote_average":5,"vote_count":14,"id":26656,"video":false,"media_type":"movie","title":"Ghost Machine","popularity":11.521456,"poster_path":"\/extB0YvLvTkl4jFIFoPrC4ezgAB.jpg","original_language":"en","original_title":"Ghost Machine","genre_ids":[28,27,878,53],"backdrop_path":"\/4smu6hN5HGJ0aClEHzFsitEDGWO.jpg","adult":false,"overview":"Two technicians battle a vengeful spirit that has infected their stolen military software.","release_date":"2009-02-01"},{"vote_average":5.8,"vote_count":239,"id":354287,"video":false,"media_type":"movie","title":"War Machine","popularity":11.391547,"poster_path":"\/zGlzlzms2vN5vSFVMWuknu7XGXP.jpg","original_language":"en","original_title":"War Machine","genre_ids":[35,18,10752],"backdrop_path":"\/eQsellX1IeGaIjv1w4JBzoOrvmf.jpg","adult":false,"overview":"A rock star general bent on winning the “impossible” war in Afghanistan takes us inside the complex machinery of modern war. Inspired by the true story of General Stanley McChrystal.","release_date":"2017-05-26"},{"vote_average":5.9,"vote_count":335,"id":174675,"video":false,"media_type":"movie","title":"The Machine","popularity":8.41719,"poster_path":"\/smbzmGrpVNiZWyHHazrCDihjloV.jpg","original_language":"en","original_title":"The Machine","genre_ids":[878,53],"backdrop_path":"\/fBzNahBViD372cX8ptg2e4COCOp.jpg","adult":false,"overview":"Already deep into a second Cold War, Britain’s Ministry of Defense seeks a game-changing weapon. Programmer Vincent McCarthy unwittingly provides an answer in The Machine, a super-strong human cyborg. When a programming bug causes the prototype to decimate his lab, McCarthy takes his obsessive efforts underground, far away from inquisitive eyes.","release_date":"2013-04-25"},{"vote_average":5.8,"vote_count":26,"id":1702,"video":false,"media_type":"movie","title":"Death Machine","popularity":8.20074,"poster_path":"\/yg9zyB7CgbfUTXY0FQb2rUB0HYa.jpg","original_language":"en","original_title":"Death Machine","genre_ids":[28,27,878,53],"backdrop_path":"\/8AFuElrPnUaasD9Vl3usyUbUUqa.jpg","adult":false,"overview":"Chaank Armaments is experimenting with the ultimate fighting machine which is part human - part machine. So far, the Hardman project has been unreliable and has killed a number of innocent people. The genius behind this project is Jack who lives in a world of models, toys and magazines. When he is fired by Cale for killing a few corporate officers, he unleashes the ultimate killing machine called the 'Warbeast' against Cale and those who would help her.","release_date":"1994-12-23"},{"original_name":"Mann & Machine","id":12485,"media_type":"tv","name":"Mann & Machine","vote_count":0,"vote_average":0,"poster_path":"\/cXxbfvAC2xeiruvH8iwuzL0nda8.jpg","first_air_date":"1992-04-05","popularity":1.56323,"genre_ids":[80,10765],"original_language":"en","backdrop_path":"\/vPn5JqCnWTRnORK07stjdhJjU3K.jpg","overview":"Mann & Machine is an American science fiction\/police drama series that aired for nine episodes on NBC from April 5, 1992 to July 14, 1992.","origin_country":["US"]},{"vote_average":6.1,"vote_count":158,"id":9991,"video":false,"media_type":"movie","title":"Mean Machine","popularity":7.192854,"poster_path":"\/rKHLU4LJCzQ1VT09oH6BY6Bi5mL.jpg","original_language":"en","original_title":"Mean Machine","genre_ids":[35,18],"backdrop_path":"\/diMPsSiT365O2FZMQbJb6i07dsO.jpg","adult":false,"overview":"Disgraced ex-England captain (Danny 'Mean Machine' Meehan) is thrown in jail for assaulting two police officers. He keeps his head down and has the opportunity to forget everything and change the lives of the prisoners. These prisoners have the chance to put one over the evil guards. The prisoners are lead by Danny and the whole of the prison, guards aside, are behind them.","release_date":"2001-12-26"},{"vote_average":5.9,"vote_count":903,"id":23048,"video":false,"media_type":"movie","title":"Hot Tub Time Machine","popularity":13.084349,"poster_path":"\/zERxFAXiQdPAfsumIIcBFH8fOVt.jpg","original_language":"en","original_title":"Hot Tub Time Machine","genre_ids":[878,35,12],"backdrop_path":"\/i4xX5YUHUfNvlHt65DPDXQgJT7m.jpg","adult":false,"overview":"A malfunctioning time machine at a ski resort takes a man back to 1986 with his two friends and nephew, where they must relive a fateful night and not change anything to make sure the nephew is born.","release_date":"2010-03-26"},{"vote_average":5.8,"vote_count":637,"id":2135,"video":false,"media_type":"movie","title":"The Time Machine","popularity":12.473985,"poster_path":"\/elWjfgdsKQbk5E02npdy5Q0Ziee.jpg","original_language":"en","original_title":"The Time Machine","genre_ids":[878,12,28],"backdrop_path":"\/6INPlUs6t14nZFcnc6Kd0QP7rHg.jpg","adult":false,"overview":"Hoping to alter the events of the past, a 19th century inventor instead travels 800,000 years into the future, where he finds humankind divided into two warring races.","release_date":"2002-03-04"},{"vote_average":6.1,"vote_count":31,"id":14664,"video":false,"media_type":"movie","title":"Sharky's Machine","popularity":5.384853,"poster_path":"\/unpEPbhTSyPPQhHvzTRiXvUwtHd.jpg","original_language":"en","original_title":"Sharky's Machine","genre_ids":[80,18,28,53],"backdrop_path":"\/447jSult4ccYwUjtYPdiiPPmogl.jpg","adult":false,"overview":"Sharky gets busted back to working vice, where he happens upon a scandalous conspiracy involving a local politician. Accompanied by an all-star jazz soundtrack, Sharky's new \"machine\" gathers evidence while Sharky falls in love with a woman he has never met.","release_date":"1981-12-18"},{"vote_average":7.5,"vote_count":215,"id":2134,"video":false,"media_type":"movie","title":"The Time Machine","popularity":10.255515,"poster_path":"\/cjmluKjmaqLfZmwMEwjki6tvLnS.jpg","original_language":"en","original_title":"The Time Machine","genre_ids":[53,12,14,878,10749],"backdrop_path":"\/EVaEyQvzu13g6FPnzb4IlbbrGM.jpg","adult":false,"overview":"A Victorian Englishman travels to the far future and finds that humanity has divided into two hostile species.","release_date":"1960-08-17"},{"vote_average":6.4,"vote_count":291,"id":45610,"video":false,"media_type":"movie","title":"Machine Gun Preacher","popularity":10.144469,"poster_path":"\/1gEP9ZC7jpSiuMWNfbOfXTWWF5n.jpg","original_language":"en","original_title":"Machine Gun Preacher","genre_ids":[28,53,80],"backdrop_path":"\/hnn2rJedWAWtmWroJ2xEdO33JPe.jpg","adult":false,"overview":"The true story of Sam Childers, a former drug-dealing biker who finds God and became a crusader for hundreds of Sudanese children who've been kidnapped and pressed into duty as soldiers.","release_date":"2011-09-23"},{"vote_average":6.4,"vote_count":68,"id":13964,"video":false,"media_type":"movie","title":"The Machine Girl","popularity":5.394682,"poster_path":"\/t2TQiQxsEf0dBzmHoxdKkEjdQPF.jpg","original_language":"ja","original_title":"片腕マシンガール","genre_ids":[28,12,35,80,27,53],"backdrop_path":"\/flU4inIxUhtmVZNWywbbKrUHVAb.jpg","adult":false,"overview":"The life of a young, Japanese schoolgirl is destroyed when her family is killed by a Ninja-Yakuza family. Her hand cut off, she replaces it with various machines-of-death, and seeks revenge","release_date":"2008-02-07"},{"vote_average":5.4,"vote_count":16,"id":27351,"video":false,"media_type":"movie","title":"Meatball Machine","popularity":2.429997,"poster_path":"\/zrdyLu9UyOqx7rRhRDMGmw87PrR.jpg","original_language":"ja","original_title":"Mītobōru mashin","genre_ids":[10769,27,878],"backdrop_path":"\/o00PX1BtewZ67XbQSMFt7TkZTju.jpg","adult":false,"overview":"Capable of making bio-mechanical weapons out of human flesh, alien parasites grotesquely invade the Earth, turning their hosts into maniacal killers who seek and destroy each other to the bloody death! And yes, it s also a human love story, even though the budding romantics are infested with slimy, tumor-like globules.","release_date":"2005-01-01"},{"vote_average":1,"vote_count":1,"id":71286,"video":false,"media_type":"movie","title":"Machine","popularity":1.539976,"poster_path":"\/6KMEg6rMvoSqI4SDJOyovuZspbe.jpg","original_language":"en","original_title":"Machine","genre_ids":[18,28,53],"backdrop_path":"\/1FeG8y2HG8FsvUJYm1KzaMZOiuz.jpg","adult":false,"overview":"Two pounds of pressure on a trigger pays really well... Ex special forces mercenary and now hardened criminal Vic, lives in a world of cons, double crosses, crooked cops, mob bosses and drug dealing crime lords. Playing by his own rules, Vic and his partner Frank work both sides of the street, caring only about where they can score and take down the most cash.","release_date":"2007-03-06"},{"original_name":"Boy Machine","id":64413,"media_type":"tv","name":"Boy Machine","vote_count":0,"vote_average":0,"poster_path":"\/aSf88metKHWKOWqiiQBgjZcK7SS.jpg","first_air_date":"2015-10-16","popularity":1.038223,"genre_ids":[35],"original_language":"sv","backdrop_path":null,"overview":"","origin_country":["SE"]},{"vote_average":5,"vote_count":357,"id":243938,"video":false,"media_type":"movie","title":"Hot Tub Time Machine 2","popularity":9.722622,"poster_path":"\/tQtWuwvMf0hCc2QR2tkolwl7c3c.jpg","original_language":"en","original_title":"Hot Tub Time Machine 2","genre_ids":[35],"backdrop_path":"\/e2au5ZOOxThV3mB6Wu0fK8OFqpq.jpg","adult":false,"overview":"When Lou, who has become the \"father of the Internet,\" is shot by an unknown assailant, Jacob and Nick fire up the time machine again to save their friend.","release_date":"2015-02-20"},{"vote_average":2,"vote_count":1,"id":449510,"video":false,"media_type":"movie","title":"Machine","popularity":1.28104,"poster_path":"\/nklwQJovTTjH1FgBDNUgRIpglr.jpg","original_language":"hi","original_title":"Machine","genre_ids":[35,10749,28],"backdrop_path":null,"adult":false,"overview":"Machine depicts the story of racing enthusiasts , who meet each other under mysterious circumstances. As their bond becomes stronger, they eventually fall in love. However, new things begin to unfold, which change their lives forever","release_date":"2017-03-16"},{"vote_average":4.5,"vote_count":3,"id":429829,"video":false,"media_type":"movie","title":"Meatball Machine Kodoku","popularity":2.326384,"poster_path":"\/xvEyStSBUHBBNCV5QZ821wJG19C.jpg","original_language":"ja","original_title":"蠱毒 ミートボールマシン","genre_ids":[27,878],"backdrop_path":null,"adult":false,"overview":"Nobody knows where they came from. They parasitize in human beings, take control of them and change their bodies into hideous monsters (Necro-borg). The Necro-borg fight each other until the other dies. Where did they come from? To what end? Yuji and Kaoru, whom both have dark secrets within themselves, get caught up in the horrific battles of Necro-borg. What will their fate be?","release_date":"2017-03-11"},{"vote_average":6.1,"vote_count":20,"id":26573,"video":false,"media_type":"movie","title":"Dr. Goldfoot and the Bikini Machine","popularity":11.123975,"poster_path":"\/tTw2lkfF4qLQJM0VgJDPbZYNC2o.jpg","original_language":"en","original_title":"Dr. Goldfoot and the Bikini Machine","genre_ids":[35,878],"backdrop_path":"\/ugBu07dH72oi3jmcdvqG8q5M4Hu.jpg","adult":false,"overview":"In this campy spy movie spoof Dr. Goldfoot (Vincent Price) has invented an army of bikini-clad robots who are programmed to seek out wealthy men and charm them into signing over their assets. Secret agent Craig Gamble (Frankie Avalon) and millionaire Todd Armstrong set out to foil his fiendish plot.","release_date":"1965-11-06"},{"original_name":"Maszyna zmian","id":69068,"media_type":"tv","name":"Transformations Machine","vote_count":0,"vote_average":0,"poster_path":"\/v1K0pNnyZlnSqojUp2OCulFaCnz.jpg","first_air_date":"1995-05-01","popularity":1.001697,"genre_ids":[10765,10751,10759],"original_language":"pl","backdrop_path":"\/e9KGFpvo0dwfMo454Pw3eTzZdTZ.jpg","overview":"Small children find magical machine and try to understand that the golden chicken is not a bird.","origin_country":["PL"]}]}